{
    "en": {
        "Show": "Show",
        "Minute": "Minute",
        "Tasks": "Tasks",
        "Task": "Task",
        "Owner": "Owner",
        "Myself": "Myself",
        "All": "All",
        "Groups": "Groups",
        "Date": "Date"
    },
    "nl": {
        "Show": "Toon",
        "Minute": "Notulen",
        "Tasks": "Taken",
        "Task": "Taak",
        "Owner": "Eigenaar",
        "Myself": "Zelf",
        "All": "Alle",
        "Groups": "Groepen",
        "Date": "Datum"
    }
}
