{
    "en": {
        "All from": "All from",
        "Anonymous user": "Your enrolled courses here? Click {here} to sign in!",
        "Answers": "Answers",
        "Answers-alert": "Want to earn some cash by creating answers? Click {here} to see how!",
        "Are you sure you want to delete this exam?": "Are you sure you want to delete this exam?",
        "Clear": "Clear",
        "Comment": "Comment",
        "Course": "Course",
        "course.code": "Course catalogue number",
        "Courses": "Courses",
        "Datanose unavailable": "Datanose is currently not available. Please use the search bar instead.",
        "Date": "Date",
        "Date unknown": "Date unknown",
        "Education": "Education",
        "Educations": "Educations",
        "End-term": "End-term",
        "Enrolled courses": "Enrolled courses",
        "Enrolled educations": "Enrolled educations",
        "Examination": "Examination",
        "Examinations": "Examinations",
        "handin_exams": "Help your fellow students by being the first to hand in a new exam at VIA. As a thank you, you'll receive a free consumption!",
        "Login-exam": "Log in to view exams",
        "Login-answer": "Log in to view answers",
        "Mid-term": "Mid-term",
        "New examination": "New examination",
        "No enrolled courses found": "No enrolled courses found.",
        "No enrolled educations found": "No enrolled educations found.",
        "No examinations found": "No examinations found. Hand in exams for a free consumption in the <b>via</b>-room!",
        "Retake": "Retake",
        "search": "Search all courses by name or code",
        "search.help": "Are you missing a course? Help us update our data using a {course.code}.",
        "Select All": "Select All",
        "Solutions-alert": "The solutions provided here are not the official solutions and are not guaranteed to be correct.",
        "Unconfirmed user": "Connect your UvAnetID {here} to view your enrolled courses.",
        "Unknown": "Unknown"
    },
    "nl": {
        "All from": "Alles van",
        "Anonymous user": "Jouw ingeschreven vakken hier? Klik {here} om in te loggen!",
        "Answers": "Antwoorden",
        "Answers-alert": "Wil je bijverdienen door tentamens uit te werken? Klik {here} om te zien hoe!",
        "Are you sure you want to delete this exam?": "Weet je zeker dat je dit tentamen wilt verwijderen?",
        "Clear": "Wissen",
        "Comment": "Commentaar",
        "Course": "Vak",
        "course.code": "Studiegidsnummer",
        "Courses": "Vakken",
        "Datanose unavailable": "Datanose is nu niet beschikbaar. Gebruik de zoekbalk als alternatief.",
        "Date": "Datum",
        "Date unknown": "Datum onbekend",
        "Education": "Opleiding",
        "Educations": "Opleidingen",
        "End-term": "Eindtentamen",
        "Enrolled courses": "Ingeschreven vakken",
        "Enrolled educations": "Ingeschreven opleidingen",
        "Examination": "Tentamen",
        "Examinations": "Tentamens",
        "handin_exams": "Help je mede-studenten door als eerste een nieuw tentamen in te leveren bij VIA. Als bedankje krijg je een gratis consumptie!",
        "Login-exam": "Log in om tentamens te zien",
        "Login-answer": "Log in om antwoorden te zien",
        "Mid-term": "Deeltentamen",
        "New examination": "Nieuw tentamen",
        "No enrolled courses found": "Geen ingeschreven vakken gevonden.",
        "No enrolled educations found": "Geen ingeschreven opleidingen gevonden.",
        "No examinations found": "Geen tentamens gevonden. Lever een tentamen in bij de <b>via</b>-kamer voor een gratis consumptie!",
        "Retake": "Hertentamen",
        "search": "Zoek in alle vakken op naam of vakcode",
        "search.help": "Missen er vakken? Help ons onze data up-to-date te houden met een {course.code}.",
        "Select All": "Alles selecteren",
        "Solutions-alert": "De gegeven uitwerkingen zijn niet de officiele uitwerkingen en zijn niet gegarandeerd correct.",
        "Unconfirmed user": "Koppel je UvAnetID {here} om jouw ingeschreven vakken te zien.",
        "Unknown": "Onbekend"
    }
}
